; credit:  Alryc on discord
;SETUP

finditem ZLF c_
Set %BANDIES #FINDID

;-------------------------END SETUP

sub Fight

finditem YFM G_2

if #FINDCNT > 0
{
gosub VetHeal
}
else
{
click 372 249 d
wait 10
gosub Fight

sub VetHeal
wait 10

finditem YFM G_2
set #LOBJECTID %BANDIES
event macro 17
target 4s
set #LTARGETID #FINDID
event macro 22
wait 11s

finditem YFM G_2

if #FINDCNT > 0
{
gosub VetHeal
}
else
{
gosub Tame

sub Tame

event macro 13 35
target 3s
finditem JG_SF_MG_SG_OF G_2
set #LTARGETID #FINDID
event macro 22
wait 10s

if #SYSMSG = You_failed_to_tame_the_creature.
{
wait 5s
gosub Tame
}
else
{
event macro 1 0 all release
gosub Fight

